<svg width="6px" height="9px" viewBox="0 0 6 9" version="1.1" xmlns="http://www.w3.org/2000/svg" xmlns:xlink="http://www.w3.org/1999/xlink">
    <g id="Desktop-Final" stroke="none" stroke-width="1" fill="none" fill-rule="evenodd" transform="translate(-226.000000, -158.000000)">
        <g id="Breadcrumbs" transform="translate(112.000000, 134.000000)" fill="#303030" fill-rule="nonzero">
            <polygon id="Shape" points="114.353553 25.06125 117.792303 28.5 114.353553 31.93875 115.06125 32.6464466 119.207697 28.5 115.06125 24.3535534"></polygon>
        </g>
    </g>
</svg>