<?xml version="1.0" encoding="UTF-8"?>
<svg width="12px" height="12px" viewBox="0 0 12 12" version="1.1" xmlns="http://www.w3.org/2000/svg" xmlns:xlink="http://www.w3.org/1999/xlink">
    <!-- Generator: sketchtool 48.2 (47327) - http://www.bohemiancoding.com/sketch -->
    <title>24BEFCD8-5930-481A-B1D5-A0A62F0CD81A</title>
    <desc>Created with sketchtool.</desc>
    <defs></defs>
    <g id="Desktop_Supervisor_Card" stroke="none" stroke-width="1" fill="none" fill-rule="evenodd" transform="translate(-496.000000, -461.000000)">
        <g id="Screen_1" transform="translate(183.000000, 240.000000)" fill="#888888" fill-rule="nonzero">
            <g id="Hover-Copy" transform="translate(1.000000, 1.000000)">
                <g id="1" transform="translate(296.000000, 61.000000)">
                    <g id="Name" transform="translate(16.000000, 153.000000)">
                        <path d="M0,17.2 L3.33066907e-16,15.4 C3.33066907e-16,13.8 3.6,12.8 5.6,12.8 C7.6,12.8 11.2,13.8 11.2,15.5 L11.2,17.2 L0,17.2 Z M5.6,10.4 C4.38497355,10.4 3.4,9.41502645 3.4,8.2 C3.4,6.98497355 4.38497355,6 5.6,6 C6.81502645,6 7.8,6.98497355 7.8,8.2 C7.8,9.41502645 6.81502645,10.4 5.6,10.4 Z" id="Combined-Shape"></path>
                    </g>
                </g>
            </g>
        </g>
    </g>
</svg>